0	187.195	5726247.294	3568620.586
5	187.094	5726245.906	3568625.53
10	187.609	5726244.816	3568630.382
15	188.301	5726244.422	3568635.079
20	188.822	5726242.6	3568640.074
25	188.939	5726241.394	3568644.767
30	189.612	5726239.791	3568649.673
35	190.048	5726238.834	3568654.436
40	190.592	5726237.737	3568659.216
45	190.987	5726236.409	3568664.062
50	191.266	5726235.259	3568668.819
55	191.935	5726234.172	3568673.746
60	192.737	5726233.027	3568678.624
65	193.09	5726231.801	3568683.438
70	193.741	5726230.806	3568688.339
75	194.023	5726229.599	3568693.187
80	193.911	5726228.465	3568698.13
85	194.387	5726227.118	3568702.924
90	194.894	5726226.069	3568707.712
95	195.564	5726224.892	3568712.528
100	195.418	5726223.643	3568717.518
105	195.934	5726222.749	3568722.172
110	196.646	5726221.425	3568727.092
115	197.024	5726220.452	3568731.959
120	197.551	5726219.306	3568736.825
125	197.933	5726217.805	3568741.63
130	198.493	5726216.948	3568746.419
135	198.814	5726215.64	3568751.188
140	199.146	5726214.018	3568755.973
145	199.468	5726212.814	3568760.717
150	200.002	5726211.205	3568765.55
155	200.552	5726209.927	3568770.398
160	201.96	5726209.295	3568774.884
165	202.041	5726207.9	3568779.643
170	201.726	5726206.392	3568784.553
175	202.777	5726205.385	3568789.268
180	203.186	5726204.07	3568794.157
185	203.83	5726202.984	3568798.644
190	204.565	5726201.694	3568803.465
195	204.858	5726200.227	3568808.428
200	205.363	5726199.081	3568813.133
205	206.23	5726198.108	3568817.933
210	210.779	5726197.589	3568822.906
215	206.101	5726196.368	3568827.988
220	206.093	5726195.214	3568832.824
225	206.744	5726194.073	3568837.672
230	207.287	5726191.413	3568842.997
235	208.184	5726190.738	3568847.151
240	209.336	5726189.361	3568852.034
245	208.498	5726187.657	3568857.199
250	210.713	5726186.926	3568861.806
255	212.022	5726186.073	3568866.669
260	211.191	5726184.712	3568871.679
265	213.588	5726183.253	3568876.182
270	213.745	5726181.711	3568880.812
275	213.141	5726181.23	3568885.443
280	214.115	5726180.115	3568890.202
285	214.967	5726178.426	3568895.429
290	216.138	5726177.272	3568900.315
295	216.966	5726176.366	3568904.976
300	217.961	5726174.767	3568909.807
305	219.02	5726173.957	3568914.578
310	219.52	5726172.592	3568919.445
315	219.754	5726171.299	3568924.413
320	221.033	5726170.052	3568929.187
325	220.729	5726168.957	3568933.939
330	221.864	5726167.688	3568938.602
335	223.083	5726166.307	3568943.451
340	223.356	5726164.979	3568948.384
345	224.151	5726163.887	3568953.083
350	225.678	5726163.161	3568957.881
355	225.795	5726161.138	3568962.634
360	226.311	5726159.584	3568967.287
365	226.701	5726157.968	3568971.883
370	228.002	5726156.454	3568976.392
375	227.362	5726154.937	3568981.054
380	228.362	5726151.973	3568985.291
385	228.904	5726148.95	3568989.261
390	229.925	5726145.545	3568992.976
395	231.044	5726142.042	3568996.437
400	232.308	5726138.402	3569000.024
405	233.521	5726134.495	3569002.516
410	233.89	5726130.231	3569005.197
415	234.385	5726126.032	3569007.858
420	234.654	5726121.599	3569010.418
425	235.607	5726117.541	3569012.949
430	235.659	5726113.257	3569015.64
435	236.359	5726109.443	3569018.637
440	236.861	5726105.899	3569022.273
445	237.215	5726102.567	3569025.892
450	238.544	5726099.797	3569029.56
455	239.288	5726097.723	3569034.128
460	239.471	5726095.851	3569038.984
465	239.648	5726094.155	3569043.625
470	241.5	5726092.467	3569048.061
475	241.861	5726090.693	3569052.663
480	243.018	5726088.968	3569057.207
485	243.916	5726087.222	3569061.686
490	244.048	5726085.861	3569066.533
495	246.125	5726083.574	3569070.611
500	246.463	5726082.168	3569075.786
505	249.15	5726080.863	3569079.717
510	256.888	5726080.078	3569083.571
515	256.296	5726079.322	3569088.509
520	254.532	5726078.391	3569093.267
525	251.463	5726076.731	3569098.673
530	254.976	5726074.604	3569103.19
535	256.496	5726075.005	3569108.077
540	256.397	5726072.609	3569113.217
545	260.17	5726071.783	3569117.718
550	257.604	5726071.038	3569123.059
555	262.85	5726071.132	3569126.782
560	267.843	5726068.417	3569131.418
565	260.373	5726068.395	3569138.034
570	268.308	5726066.434	3569141.947
575	261.195	5726064.618	3569147.837
580	264.683	5726064.851	3569151.949
585	272.742	5726062.445	3569155.829
590	266.846	5726061.142	3569160.064
595	269.273	5726060.15	3569164.507
600	272.687	5726058.569	3569169.279
605	275.261	5726058.135	3569175.703
610	272.17	5726054.33	3569179.446
615	269.387	5726054.023	3569185.316
620	276.183	5726053.942	3569189.126
625	276.172	5726052.585	3569194.274
630	275.079	5726049.852	3569198.924
635	272.26	5726048.593	3569203.349
640	276.221	5726049.822	3569206.689
645	284.614	5726044.912	3569210.06
650	281.162	5726042.45	3569215.023
655	275.155	5726039.874	3569222.765
660	278.697	5726040.105	3569225.788
665	281.213	5726039.874	3569229.046
670	284.205	5726037.234	3569235.375
675	292.169	5726038.354	3569237.292
680	288.056	5726035.963	3569243.266
685	291.198	5726032.192	3569245.913
690	300.457	5726032.672	3569248.885
695	287.545	5726029.145	3569257.463
700	289.428	5726026.223	3569262.732
705	297.457	5726030.249	3569268.548
710	283.591	5726020.225	3569272.359
715	289.791	5726021.535	3569276.583
720	298.246	5726025.9	3569281.709
725	292.602	5726020.324	3569286.042
730	295.716	5726016.888	3569290.738
735	293.966	5726014.88	3569294.149
740	298.342	5726014.957	3569298.339
745	297.682	5726012.332	3569302.286
750	298.816	5726013.59	3569308.883
755	298.055	5726012.123	3569314.442
760	305.007	5726008.84	3569318.241
765	298.541	5726006.224	3569322.517
770	297.686	5726003.663	3569327.307
775	298.421	5726003.471	3569332.429
780	297.96	5725999.672	3569336.089
785	298.74	5725997.648	3569341.246
790	296.397	5725995.87	3569345.204
795	295.219	5725994.556	3569349.772
800	295.848	5725993.911	3569354.825
805	294.089	5725992.917	3569359.594
810	293.213	5725992.38	3569364.325
815	293.951	5725992.227	3569369.275
820	293.138	5725990.7	3569374.211
825	294.572	5725991.45	3569378.161
830	294.773	5725987.234	3569383.867
835	291.935	5725985.044	3569387.758
840	292.535	5725982.817	3569392.565
845	294.421	5725980.064	3569397.195
850	292.263	5725979.188	3569401.806
855	296.082	5725977.158	3569407.713
860	292.377	5725974.565	3569410.581
865	291.177	5725972.512	3569415.262
870	288.474	5725969.81	3569419.822
875	289.963	5725970.362	3569424.628
880	287.774	5725965.273	3569429.168
885	282.446	5725965.35	3569433.553
890	286.135	5725960.669	3569437.981
895	284.782	5725961.794	3569442.7
900	284.588	5725959.511	3569447.676
905	290.268	5725960.736	3569453.43
910	291.981	5725956.542	3569459.067
915	285.6	5725953.394	3569461.154
920	299.186	5725954.564	3569471.633
925	292.53	5725949.164	3569473.162
930	284.643	5725947.078	3569476.136
935	289.281	5725945.336	3569477.091
940	278.393	5725944.141	3569482.554
945	280.495	5725944.372	3569488.071
950	286.035	5725943.332	3569495.458
955	277.278	5725937.961	3569497.225
